trajv,trajw,trajv+phi,trajw+phi
0.00625,0.0025,-0.030647871766727397,0.023969055425729562
0.01273436991373698,0.00504375,0.08219595586880284,-0.006524374853014589
0.019464990636291,0.007633578061421712,-0.06804810654291882,0.0029807748383735237
0.026454300276184367,0.010271928746030801,0.07699517674261441,0.09407377184814619
0.03371531279863054,0.012961368479225181,0.09470509337890906,0.08240362503129114
0.041261635882166574,0.015704591072618717,0.08895093685988478,0.04721794497886338
0.04910748766469199,0.018504423393897292,0.11585937596272654,-0.050332298809777284
0.05726771199550687,0.021363831168039853,0.015779852286128618,0.05612204543881095
0.06575779174173339,0.02428592488942314,0.05647521407086176,0.07230051295167539
0.07459385961950465,0.02727396581896524,0.1552931300871522,0.10649397443140657
0.0837927059314584,0.030331372034198275,0.06767885996305731,-0.03736444885467219
0.0933717824913101,0.03346172449287128,0.07462416467249539,-0.028392249820792047
0.10334920190255231,0.03666877306223568,0.05897733003969205,0.1193584081240964
0.1137437312306637,0.03995644245641184,0.07019249144545192,-0.007949202648006345
0.12457477896578797,0.043328838013019476,0.04431131752995314,0.050112450983240305
0.13586237401508633,0.04679025122741281,0.16716172326237638,-0.039329118072890974
0.1476271352906777,0.05034516494822446,0.1099748502878131,0.11075371798481493
0.15989023027060487,0.05399825812131985,0.07415319893663763,-0.011920223239069536
0.1726733207077025,0.05775440995053426,0.17531401754229733,0.11712639592494559
0.1859984934467158,0.0616187033225607,0.1895012811424458,0.09897226536606016
0.19988817408699394,0.06559642731995943,0.20904179769194736,0.14890186034989542
0.21436502100176563,0.06969307862039742,0.24578948553641533,0.031429446024187555
0.22945179700280283,0.07391436155188902,0.31774227805927674,0.09927924631915334
0.24517121573134124,0.07826618654308558,0.31608788607158245,0.1356155686775226
0.2615457596759356,0.08275466667475992,0.19024989540614168,-0.0013124638156363916
0.2785974665829549,0.08738611200393116,0.23077231429572392,0.12359729891286668
0.2963476809577819,0.09216702129616404,0.2947022406728954,0.1485918073296893
0.31481676738184805,0.09710407076531406,0.3241827482592221,0.13430471013439466
0.3340237825255512,0.1022040993845641,0.394548046125466,0.04632959094760936
0.35398610305900846,0.10747409029959573,0.2741252530017849,0.07140383690996142
0.374719007196515,0.1129211478462139,0.3533065125985102,0.07691295702178498
0.3962352084066293,0.1185524696532849,0.3244637616482862,0.0727081366494734
0.41854434093160475,0.1243753133006351,0.37495923408785115,0.0412978158895209
0.4416523982417667,0.13039695700439644,0.4722189334230549,0.1492829243344359
0.4655611274531671,0.13662465382360806,0.39779891402370277,0.1363790665873913
0.4902673851016256,0.14306557892669802,0.49219881564672363,0.1777394668919349
0.5157624625166177,0.14972676953022623,0.6050031880641475,0.1584308399867572
0.5420313923701315,0.15661505723064334,0.5445669945524362,0.20557735120088888
0.5690522517445353,0.16373699259834865,0.5481272325702395,0.09535185945703842
0.5967954811725916,0.17109876209692804,0.5360900695899058,0.19763835620739914
0.6252232433887158,0.17870609763275266,0.6827721972925749,0.24810044026431652
0.654288849752572,0.18656417933266126,0.6123073376421205,0.15394993871702434
0.683936286139144,0.1946775324887443,0.6123124551903661,0.2828748469224134
0.714099873125763,0.20304991999376337,0.6943251916275273,0.28580476318502457
0.7447040970688724,0.21168423200792116,0.6709871300803807,0.1798524026296064
0.7756636486332154,0.22058237503117314,0.7709967433003678,0.28426793038360443
0.8068837030005956,0.2297451629824097,0.7858749555553705,0.19929231135617603
0.8382604709011335,0.23917221327890903,0.757909725021209,0.18581160632885235
0.869682041482466,0.2488618512325882,0.8124019081492877,0.2314052071915001
0.9010295268016901,0.2588110262966709,0.9138876429079325,0.2525919632567857
0.9321785036453787,0.2690152437701128,1.0086467246332553,0.21281139104288196
0.9630007320803418,0.279468515463841,1.045601877145702,0.2913032119677544
0.9933661126245524,0.29016333252721743,0.9389279673037073,0.24570967443099456
1.023144826561644,0.3010906631127751,0.9714800798025365,0.22140176247462118
1.0522095882987674,0.312239976826995,1.0422023442606358,0.3103653220285444
1.0804379264476403,0.3235992969993584,1.0406313050727574,0.32775838027115445
1.107714403003254,0.33515528074621276,1.1306635913926857,0.24934734926502017
1.1339326787350135,0.346893325673493,1.1902952231203743,0.41627224320762224
1.1589973382416883,0.35879770092967017,1.082746956218809,0.3354239144477752
1.1828253998954283,0.3708516992699083,1.2066095221587811,0.2964318594844604
1.205347453217661,0.3830378059036399,1.1197809385766688,0.44954689007605575
1.2265083875553418,0.3953378792376856,1.2883494110369726,0.37651718007881574
1.2462676992806332,0.4077333382426092,1.3305366768225468,0.3844311233147386
1.2645993879675048,0.42020535108278123,1.2200016488128327,0.36090046727333935
1.2814914730680884,0.4327350198549868,1.2531311064929762,0.40765804219680113
1.2969451798565952,0.44530355674533184,1.3679501762315236,0.48250054768676187
1.31097385572027,0.45789244758829095,1.3541138625260987,0.5313338343529568
1.3236016847801755,0.47048359963045533,1.3063678505866154,0.5042450270855412
1.334862270455113,0.48305947119528875,1.2971557794595425,0.4569796745126583
1.3447971525785283,0.49560318184704244,1.3125457073515518,0.42819137205669705
1.3534543190231998,0.5080986025038772,1.338325854286781,0.41867737380526565
1.360886762631219,0.5205304257072388,1.3535085146514052,0.4630601412106487
1.3671511237413614,0.5328842168866545,1.3664878648241698,0.4728627091910224
1.3723064477847173,0.54514644795123,1.392687308843666,0.5271765021306739
1.3764130771121497,0.5573045148892096,1.4257207440374637,0.614046040889644
1.3795316870153926,0.5693467412733849,1.406953049803551,0.48323793928581704
1.3817224681633051,0.5812623696685683,1.4414031136306398,0.6594362954551992
1.383044451544793,0.5930415429376668,1.4174317628865034,0.510087737230094
1.383554967475644,0.6046752773665838,1.4100584009737247,0.5821590695293146
1.3833092271579825,0.6161554293962388,1.4713400078762728,0.6839682063431795
1.3823600134782243,0.6274746575815153,1.297926052394846,0.5884010966665819
1.3807574669601927,0.6386263812082473,1.311802101645041,0.6584506048338126
1.3785489528192263,0.6496047368036363,1.4219799179887276,0.5810463452708488
1.3757789956718973,0.6604045335828266,1.4315014387799256,0.6403798381073429
1.3724892694537023,0.6710212086919615,1.3844528147514688,0.6827756970271008
1.3687186313263497,0.6814507829406182,1.3361767539007667,0.6007040913732766
1.364503189693422,0.6916898175667641,1.4069699033576346,0.7113302708175063
1.3598763977959878,0.7017353724463888,1.2931164161028723,0.705060358127385
1.3548691656632397,0.7115849660477008,1.3027393362053112,0.7504484710657076
1.349509984405014,0.7212365373353354,1.315560347482037,0.7828745419292668
1.3438250579284596,0.7306884097520372,1.4082281969377939,0.7811123459122428
1.337838438128909,0.7399392573420525,1.2478588403169906,0.7476939694807943
1.3315721604435227,0.7489880730302106,1.2501063233831544,0.7640876259884131
1.3250463773704277,0.7578341390315892,1.348543137107527,0.7916527413841122
1.3182794881548834,0.7664769993370353,1.2464528722768018,0.8131365952496594
1.3112882633387528,0.7749164341980871,1.2874318048541304,0.8177982585317345
1.304087963272522,0.7831524365195978,1.2619218036646647,0.8706948304633875
1.296692450012539,0.7911851900583599,1.2790290040003278,0.7375232863575593
1.289114292281793,0.7990150493202142,1.3142500238466388,0.8322146724395157
1.281364863371182,0.8066425210455836,1.330741844419898,0.7290824464964477
1.273454432009525,0.8140682471733467,1.3332797086055719,0.8151194551025007
1.2653922463430463,0.8212929891748323,1.330899075098495,0.7506529615672624
1.2571866112460324,0.8283176136529664,1.293842795330905,0.8894397566241927
1.2488449592400797,0.8351430791058135,1.2727481278279298,0.9131490824636078
1.24037391533506,0.8417704237586096,1.2041684238758628,0.8197300161245135
1.231779356124984,0.848200754373617,1.2296631810834115,0.8995764464800031
1.2230664634799147,0.854435235952542,1.254894995465124,0.814299803060222
1.2142397731739012,0.8604750822516934,1.1645879942517405,0.8225156489800935
1.2053032187809047,0.8663215470354064,1.115557201279362,0.928235628310226
1.1962601711577505,0.8719759159984309,1.1309790353314593,0.8951764805279623
1.1871134738167453,0.8774394992929244,1.196006487496742,0.8099125927410187
1.1778654744718944,0.8827136246003561,1.0914121975501954,0.8523413714543858
1.1685180530225332,0.8877996306929998,1.172033707403473,0.8850268233708214
1.1590726462173238,0.8926988614337528,1.1489014364231753,0.9497707590166663
1.149530269220453,0.8974126601667552,1.063444388207278,0.8847276801971931
1.1398915342808784,0.901942364454718,1.144741365978198,0.9222096913433201
1.1301566666848328,0.9062893011219766,1.1818669289099961,0.9764207965765821
1.1203255181516962,0.9104547815651098,1.198383497051735,0.8218592067531392
1.1103975778138682,0.9144400972954858,1.1075104374470381,0.8693269026003193
1.100371980902453,0.9182465156803462,1.020787872977663,0.8468663954212643
1.0902475152424245,0.9218752758510221,1.0451786963177334,0.9931125039184554
1.0800226256434216,0.9253275847486009,1.0919080577474423,1.006703990324331
1.0696954162553876,0.9286046132788504,1.1456377415237449,0.8864202759296466
1.0592636509418407,0.9317074925494585,1.1096677152304313,0.8828197547610664
1.0487247517075502,0.9346373101636765,1.025737194056956,0.9429277175420446
1.038075795201705,0.9373951065452703,1.1210300017999173,1.0070518580344028
1.0273135073021904,0.9399818712702941,0.9684391874953541,0.8511813295418099
1.0164342557712145,0.9423985393816049,1.0432644887131521,0.8636897274323814
1.005434040957149,0.944645987662248,0.9612991496116811,0.9342253338042373
0.9943084845019233,0.9467250308438565,1.0219431882167234,0.8700561901480968
0.9830528159975417,0.9486364177260275,0.953786480763194,0.9907800606828896
0.9716618575191194,0.9503808271822639,0.9035946253641862,0.9747881242100371
0.9601300059451564,0.9519588640274967,0.9475608976229668,1.0247371467607493
0.9484512129584306,0.9533710547214331,0.9193024026298007,0.9515737398714293
0.9366189626027739,0.9546178428809938,1.0205560912321405,0.9961637898777819
0.9246262462519572,0.9556995845739148,0.8687969902103991,0.9625792773813071
0.9124655348268201,0.9566165433641729,0.9790440376344347,1.0268389548629864
0.9001287480755038,0.9573688850782508,0.9732970388053632,0.9083839351536822
0.8876072207090615,0.9579566722593686,0.9747503224231809,0.9443506133237021
0.8748916651607102,0.9583798582746655,0.9226466740182664,0.8771838429865785
0.8619721307114445,0.9586382810378977,0.9218944849432433,1.028670609478983
0.8488379586975916,0.9587316563075197,0.8813913359112158,0.9968679183665042
0.8354777334870784,0.9586595705170111,0.8268061697376713,0.9827064893831872
0.821879228880729,0.9584214730909907,0.8000678294718104,1.018878618740386
0.8080293495628454,0.9580166681969987,0.8211858376021149,1.0188320989949062
0.7939140671918141,0.9574443058788256,0.8188695360971008,0.9516000973221569
0.7795183506867606,0.9567033725128894,0.7190292477685516,0.9795128820331308
0.7648260902307707,0.9557926805244217,0.8320457530698279,1.0065426371886332
0.7498200144755004,0.9547108572950955,0.6895516546471129,0.9320851158681767
0.7344816003969872,0.9534563331882318,0.7127894075462224,1.038874653559376
0.7187909752193742,0.9520273286118559,0.6814941426144411,0.8997313961845879
0.7027268097937133,0.950421840033685,0.7430735474556585,0.9280478272118771
0.68626620279529,0.9486376248556433,0.6559075492978413,0.9146505675763723
0.6693845550880017,0.9466721850488193,0.7396572271955395,0.9057509397558812
0.6520554336021901,0.9445227494429981,0.5708910971544199,0.8548120336913204
0.6342504240882061,0.9421862545581843,0.5484549168978061,0.9981432074254857
0.6159389721486501,0.9396593238591118,0.6111937578945866,0.8805258573278785
0.5970882120265509,0.9369382453079071,0.5384436686959783,0.8965713853563309
0.5776627827460992,0.9340189470852553,0.5812806425474906,1.0030982304091385
0.5576246313816283,0.9308969713471593,0.4696001171381783,0.8529074134054537
0.5369328034880969,0.9275674458834062,0.44753620738288613,0.9766776331243937
0.515543221086283,0.9240250535461106,0.5355853452110367,0.9878355199632975
0.4934084490885675,0.9202639993234302,0.44329860835886914,0.9327663550119728
0.470477451714758,0.9162779749463401,0.41804018401500903,0.9263620947231154
0.446695341329784,0.9120601209372624,0.42357326105095167,0.8360773205916613
0.42200312329584827,0.9076029860409973,0.438492593858664,0.8686322653167022
0.3963374419442889,0.9028984840241318,0.3870504298508663,0.9559363092469787
0.36963033472679235,0.8979378478931036,0.3499471172607677,0.9638910712755671
0.3418090041100238,0.8927115816686584,0.3151471404349364,0.8361704887937852
0.31279561996071115,0.8872094099720896,0.30769187855772456,0.8098948655849879
0.28250716917894975,0.8814202258344823,0.2157367306093647,0.8671622567099153
0.25085537434413685,0.875332037343995,0.19711170587234628,0.8287074357532622
0.21774670932197226,0.8689319140098168,0.17773467750391442,0.8354880934467427
0.1830825473251625,0.8622059340587065,0.22077654618841833,0.845568327575911
0.14675948598715768,0.8551391343069638,0.08407277222096773,0.7907906484684266
0.10866990470269691,0.8477154647850824,0.0786228454027626,0.8622889005682803
0.06870282180154323,0.8399177509530712,0.0837804781284472,0.7936933371284404
0.026745132840849263,0.8317276671499858,0.1064171001404785,0.8729556452357707
-0.017316674112857318,0.8231257258871841,-0.0013015254379116284,0.7445211859084261
-0.06359421593155533,0.8140912887298246,-0.1422672080149305,0.8255189062601406
-0.11219420186302895,0.8046026058106451,-0.11465881717085553,0.7843881986183393
-0.1632145804908865,0.7946368924574609,-0.1686677476463881,0.8698191149531259
-0.21673971686072138,0.7841704529300347,-0.29290023674023336,0.8333744846855752
-0.27283448606290134,0.7731788627414877,-0.2497778168065272,0.7744173137808779
-0.3315372071826089,0.761637222303006,-0.3353009421613037,0.7544748739064366
-0.3928514100964004,0.7495204954065571,-0.44971491098772476,0.813647254592148
-0.45673653680821547,0.736803945968512,-0.4889919988862965,0.6518308718324023
-0.5230978374802128,0.7234636850013422,-0.4949420895798452,0.788132388199698
-0.5917759333398089,0.7094773363640711,-0.678829470901682,0.774082645855017
-0.6625367794617102,0.6948248238223175,-0.6756393327631695,0.7017115927829777
-0.7350630500519526,0.6794892727514892,-0.6601667878803466,0.7281051445568217
-0.808948245906152,0.6634580071255068,-0.8304632284381162,0.6568755885063682
-0.8836950217354794,0.6467236064537042,-0.7962601006133537,0.5728770589448415
-0.9587192616357464,0.6292849690932723,-0.9669666928921684,0.646412171117186
-1.033361198212412,0.6111483099977929,-1.033618095872765,0.6900218937826451
-1.106904300115688,0.5923280057576681,-1.136400521604889,0.6072614827912197
-1.1786017307446102,0.572847191927054,-1.1921429891699937,0.5023994539973258
-1.247708995324339,0.5527380214037494,-1.2404058457025855,0.5496774490248834
-1.3135201508241752,0.5320415111678936,-1.2668629580485675,0.5241994446738332
-1.3754039518954944,0.5108069385040328,-1.3783862577931834,0.45305360610272627
-1.4328358572781972,0.4890907937009087,-1.4049498752853251,0.577096789889251
-1.4854221342768525,0.46695534707154374,-1.4470769970198232,0.40298293002653895
-1.532913380566827,0.44446693437084933,-1.474571312106256,0.3946682495825218
-1.575206404805139,0.4216940967661648,-1.524239720014288,0.4094289162744177
-1.6123351733394509,0.3987057228755658,-1.554179890743345,0.4694471263347696
-1.644453013533512,0.3755693295192837,-1.5563941466701128,0.4346155917806671
-1.671809157386796,0.3523495885692246,-1.6738377185514803,0.3259495119884848
-1.6947229106546238,0.3291071672590628,-1.6650185022070487,0.3906107974622396
-1.7135583423669807,0.3058979073260679,-1.7165670528737704,0.28451842668815186
-1.7287016319970265,0.28277233182074724,-1.6440947132003791,0.3687114992684697
-1.7405423361915828,0.25977544185824913,-1.6542085430010554,0.28444877256617596
-1.7494590417640425,0.23694675033030344,-1.8053975292913573,0.20612347515586985
-1.755809268720213,0.21432049449121124,-1.6660808353331613,0.17843702351599405
-1.7599231075181783,0.19192597183295443,-1.7305866563326033,0.1428745394666103
-1.7620998940450776,0.16978795087627407,-1.7583319848110608,0.15450791091769073
-1.76260719295491,0.14792711787616183,-1.8449218649865256,0.1059369306044978
-1.7616814200698392,0.12636053009342824,-1.751162383440306,0.10484376709567837
-1.7595295412747416,0.1051020550537706,-1.848655499998831,0.061395157542342906
-1.7563314058435309,0.08416278253084698,-1.805645044096693,0.11814533463856053
-1.7522423863634426,0.0635514016980037,-1.8081575284079714,0.06183704760751388
-1.7473960953142273,0.04327454009511312,-1.8346674003069134,0.12628258874835463
-1.7419070265956003,0.023337063977377472,-1.8127628534065114,0.07598444275497337
-1.7358730295077618,0.003742341515243528,-1.7050118474386342,-0.056289041741929904
-1.7293775654349282,-0.015507528549438092,-1.7975970261753478,-0.046652532054549535
-1.7224917269639362,-0.03441151959981992,-1.7302795082459805,-0.052251932195225684
-1.7152760185173277,-0.0529695077923716,-1.8042888341352954,-0.11192537750827167
-1.7077819095065954,-0.07118212729169308,-1.6934184108333528,-0.1434491612785219
-1.7000531777060819,-0.08905064691026475,-1.612098985761163,-0.05259194040917457
-1.6921270636905286,-0.10657686523657464,-1.700333186162517,-0.07004376517436911
-1.6840352580074225,-0.12376302163570335,-1.6492816462838773,-0.058899872764668515
-1.675804742151988,-0.14061172081330522,-1.6293855636956776,-0.1972942243505851
-1.6674585029885394,-0.15712586892902214,-1.6201083866868922,-0.24139427515602613
-1.6590161384263107,-0.17330861951860482,-1.6353065288797894,-0.2569293352375006
-1.6504943701757804,-0.1891633277305529,-1.7057314092405271,-0.22262739667582232
-1.6419074774469244,-0.20469351160145505,-1.6543633622913145,-0.20177511047721114
-1.6332676635989856,-0.2199028192850216,-1.5527046200916894,-0.17957137431226397
-1.6245853660617853,-0.23479500131483985,-1.6011569617131383,-0.1688377451752255
-1.6158695183414742,-0.2493738871225331,-1.6392541120257718,-0.33746260003762196
-1.6071277716008439,-0.2636433651538667,-1.6045181189308457,-0.3413568454173543
-1.5983666821571925,-0.2776073660280116,-1.6877751192769235,-0.2349208153689417
-1.5895918702548406,-0.29126984827209135,-1.6227992295223532,-0.3236961148680888
-1.580808154627842,-0.3046347862365356,-1.5294530365448071,-0.23028835663804745
-1.5720196666538289,-0.31770615985863127,-1.547364584326648,-0.32902938451932645
-1.5632299472955105,-0.3304879459937479,-1.5101633995402903,-0.3415829840222125
-1.5544420295166563,-0.3429841110775278,-1.6207356643473159,-0.28804705477478376
-1.5456585084305243,-0.35519860491917,-1.5426402796844587,-0.3645558521285144
-1.536881601078416,-0.36713535545691295,-1.612913340366059,-0.350434499516153
-1.5281131974337019,-0.37879826433286057,-1.545151265678358,-0.32015523701976
-1.519354903973121,-0.39019120316620504,-1.4992219939792697,-0.3331268415275246
-1.5106080809446167,-0.4013180104223337,-1.467843849500379,-0.4465907328536011
-1.5018738742827982,-0.41218248879083436,-1.5270430049005277,-0.4810222713703437
-1.4931532429737429,-0.42278840299849535,-1.492417821774664,-0.4213298708855287
-1.4844469825455724,-0.4331394779944378,-1.4175834829625538,-0.39697893429623876
-1.4757557452560985,-0.44323939745383395,-1.4303557329411243,-0.37148113853585046
-1.467080057460558,-0.45309180255454495,-1.5373029244371328,-0.45890582036293515
-1.4584203345682651,-0.46270029098767695,-1.4890360333613661,-0.5493389959253081
-1.4497768939346116,-0.4720684161686997,-1.4044990321712991,-0.5168251151940095
-1.4411499659823055,-0.4811996866205627,-1.3934251007537108,-0.40303284047425564
-1.4325397038014671,-0.49009756550430883,-1.4049064997921252,-0.5086351494284705
-1.4239461914408424,-0.49876547027614293,-1.4981442539969145,-0.434186061158203
-1.415369451070839,-0.5072067724528565,-1.4226666314805378,-0.4592978190265209
-1.4068094491724048,-0.5154247974700152,-1.4410391248995431,-0.6037529950164408
-1.3982661018831775,-0.5234228246194575,-1.3437088417052758,-0.5541596433448086
-1.3897392796131696,-0.5312040870544797,-1.3337688257911027,-0.5119199714834534
-1.3812288110259971,-0.5387717718526452,-1.341258864315419,-0.5074423997339851
-1.3727344864678301,-0.5461290201274963,-1.3570949665721879,-0.6019339264803597
-1.3642560609144747,-0.5532789271815911,-1.398873468630261,-0.5714262576171659
-1.3557932564969644,-0.5602245426942751,-1.4273906064158641,-0.5738226953516489
-1.3473457646574702,-0.566968870938441,-1.3477053769903615,-0.5564028341895524
-1.3389132479800137,-0.5735148710212558,-1.3579097933385746,-0.5399027111533303
-1.3304953417341931,-0.5798654571444637,-1.3743203581109276,-0.5795279456052587
-1.3220916551647495,-0.5860234988804047,-1.3941061232544119,-0.6295471153497916
-1.3137017725551736,-0.5919918214603586,-1.3705316168639365,-0.5376161848939172
-1.3053252540895697,-0.5977732060722183,-1.367105618282553,-0.6438982643636345
-1.2969616365335541,-0.603370390164845,-1.3594574206874273,-0.5869238737180671
-1.288610433751995,-0.6087860677567477,-1.2141940191796134,-0.5251146298313454
-1.28027113707882,-0.6140228897469924,-1.2183423297279197,-0.5473772637266806
-1.2719432155518808,-0.6190834642264564,-1.3602169203733099,-0.617269409676401
-1.2636261160239097,-0.6239703567877412,-1.2457199224941229,-0.6151615222704164
-1.2553192631588932,-0.6286860908322086,-1.173475800626402,-0.6372285359027001
-1.2470220593216943,-0.6332331478727519,-1.324822657188623,-0.69682763862329
-1.2387338843674254,-0.6376139678310228,-1.240082633227261,-0.5488366381434215
-1.2304540953359102,-0.641830949327939,-1.247444594138907,-0.5555119226242797
-1.2221820260555287,-0.6458864499663788,-1.216213229976343,-0.5672727493888763
-1.2139169866598027,-0.6497827866050352,-1.1762452471223919,-0.6916714449240458
-1.2056582630192456,-0.6535222356224635,-1.280173716209466,-0.5834669951943556
-1.1974051160902284,-0.6571070331703952,-1.1333571543108518,-0.600632627397482
-1.1891567811819188,-0.6605393754154302,-1.1407437434975576,-0.7416083096687064
-1.1809124671417042,-0.663821418768242,-1.12735335990503,-0.6773571249136312
-1.1726713554589019,-0.6669552800994499,-1.0895779502121106,-0.6712546918555159
-1.164432599286001,-0.6699430369413187,-1.132042128766161,-0.6826269156766781
-1.1561953223761283,-0.6727867276744506,-1.0799968894044158,-0.6384918744526933
-1.1479586179349204,-0.6754883516986285,-1.0868969020916865,-0.725046081714565
-1.139721547384472,-0.6780498695869589,-1.1483812777183975,-0.6680819878930239
-1.1314831390365325,-0.6804732032224441,-1.1664115287583217,-0.6521971039427747
-1.1232423866716326,-0.6827602359160921,-1.1790443249451827,-0.6347538989621961
-1.1149982480203164,-0.6849128125056413,-1.124360542843582,-0.6191187053995878
-1.106749643142162,-0.6869327394339427,-1.1835617062151518,-0.6309733145949097
-1.0984954526977475,-0.6888217848060031,-1.070674786217758,-0.7197198342563329
-1.090234516108199,-0.6905816784236424,-1.0142504565246449,-0.7443571087722236
-1.0819656295963969,-0.6922141117966698,-1.0272181422388582,-0.697228638644512
-1.073687544103351,-0.6937207381294206,-1.0908287611377587,-0.6713935697171689
-1.0653989630726468,-0.6951031722814329,-1.0981510368076335,-0.7414235802213011
-1.0570985400952275,-0.6963629907009713,-1.094387138863892,-0.7299555834532749
-1.04878487640611,-0.6975017313300232,-1.0604080918901573,-0.6156517829988789
-1.0404565182239094,-0.6985208934793118,-1.0731450531309126,-0.748919145612704
-1.032111953923284,-0.6994219376717701,-0.9592120955696088,-0.6112487237383198
-1.0237496110296025,-0.7002062854528243,-1.0522024730221056,-0.6771746129395145
-1.015367853024252,-0.700875319165718,-1.0666818719915208,-0.685378787231619
-1.0069649759480717,-0.7014303816899925,-1.0281257016771659,-0.7574250148848848
-0.9985392047893835,-0.701872776141106,-1.011652667864379,-0.6129042862215854
-0.9900886896420078,-0.7022037655290331,-1.0176006549413124,-0.775443835147432
-0.9816115016174713,-0.702424572373534,-1.0259373803124952,-0.7522656564934297
-0.9731056284943556,-0.7025363782736163,-1.0245596097992002,-0.6312285853362835
-0.9645689700863588,-0.7025403234285335,-0.9496784900808939,-0.7862130210579471
-0.9559993333091671,-0.7024375061074706,-1.0256627830101286,-0.6312000159449248
-0.9473944269246269,-0.7022289820648574,-0.9479327466711854,-0.7016075940330213
-0.9387518559389738,-0.7019157638980235,-0.9961511097053627,-0.6287994037936084
-0.9300691156299928,-0.7014988203436628,-0.9731695701648724,-0.6615293581047927
-0.9213435851759464,-0.7009790755093124,-0.9606364321236838,-0.7021864482669862
-0.9125725208568916,-0.7003574080357586,-0.9123072274770155,-0.7632121332933771
-0.9037530487966106,-0.6996346501859781,-0.9731949036891967,-0.7773324593983796
-0.8948821572107731,-0.6988115868558786,-0.9605786965096922,-0.7061077449009578
-0.8859566881241201,-0.6978889545017449,-0.8167946833517843,-0.784996306533124
-0.8769733285163903,-0.6968674399788974,-0.9298801102025676,-0.6154207357109136
-0.8679286008533786,-0.6957476792856425,-0.9196240320989959,-0.7719935068522968
-0.8588188529558939,-0.6945302562061322,-0.9016734485562071,-0.7609158048749812
-0.8496402471554576,-0.6932157008452465,-0.8323458324048563,-0.6051112847231702
-0.8403887486813193,-0.6918044880480676,-0.7927634630328654,-0.75538595954698
-0.8310601132187367,-0.6902970356959232,-0.8404062448739991,-0.6996657129773086
-0.821649873573449,-0.6886937028703384,-0.8625924319034125,-0.7143216060004047
-0.8121533253718275,-0.6869947878755394,-0.8527353303454407,-0.5986655388738492
-0.8025655117202911,-0.6852005261093985,-0.8668741326778576,-0.6378185152388265
-0.7928812067411865,-0.683311087771898,-0.8794789309904526,-0.6347297878554765
-0.7830948978954263,-0.6813265753992992,-0.7827556275123015,-0.7370511623355019
-0.7732007669947163,-0.6792470212112517,-0.6975034101548071,-0.7507779246154012
-0.7631926697981478,-0.677072384257031,-0.8123664008142366,-0.644625682585504
-0.7530641140792642,-0.6748025473459737,-0.7892243588014207,-0.6772355903461935
-0.7428082360403855,-0.6724373137459574,-0.7951864581071325,-0.6848452546132285
-0.7324177749409858,-0.6699764036324553,-0.7089305594692521,-0.5803510775702563
-0.7218850457962337,-0.6674194502692713,-0.6689716455331162,-0.7466092351881782
-0.7112019099904282,-0.6647659959005218,-0.74101046480362,-0.731366318300618
-0.7003597436379967,-0.66201548733177,-0.6163782183476377,-0.5754487118053391
-0.6893494035119915,-0.659167271176433,-0.7524963241755785,-0.6763922539249094
-0.6781611903466789,-0.656220588741657,-0.6643872208524059,-0.660638668372293
-0.6667848093069467,-0.6531745705257928,-0.5772853815327155,-0.6713104239431995
-0.6552093274029838,-0.6500282302974,-0.6236497274683184,-0.5711390518191116
-0.643423127614194,-0.646780458723348,-0.602289158391445,-0.6229265979953913
-0.6314138594718517,-0.6434300165110793,-0.6758845172328789,-0.6039628908542667
-0.6191683858359249,-0.6399755270274502,-0.6534871276698162,-0.6402509744361738
-0.6066727255882546,-0.6364154683537718,-0.5407461526227486,-0.6679034010217968
-0.5939119919524848,-0.6327481647337606,-0.5653710193719694,-0.7129773703757452
-0.5808703261415865,-0.6289717773680774,-0.5163842423433126,-0.5896050771094489
-0.5675308260275361,-0.6250842945060362,-0.5343107330058533,-0.7121758054829237
-0.5538754695260192,-0.6210835207819224,-0.5530043321262833,-0.5721940219712454
-0.5398850323936244,-0.6169670657402462,-0.590612149650337,-0.5882119195182607
-0.525539000148026,-0.6127323314912381,-0.4807966209999237,-0.7004782433881229
-0.5108154738458499,-0.6083764994350839,-0.4924137517460768,-0.5714386607350124
-0.49569106949172026,-0.6038965159909246,-0.4654307275029988,-0.541694321872864
-0.4801408109097164,-0.5992890772646959,-0.49032783516518563,-0.6765105689447919
-0.4641380159905407,-0.5945506125886778,-0.5089137378053542,-0.5785145924252539
-0.447654176340863,-0.5896772668654653,-0.4544478019986312,-0.5048051590822841
-0.4306588305139518,-0.5846648816503259,-0.4528104917007191,-0.6581789750922613
-0.41311943120321126,-0.5795089749090584,-0.4719450074971438,-0.617258360493346
-0.3950012070454027,-0.574204719394099,-0.40907516778245734,-0.6330744564358792
-0.37626702002382784,-0.5687469195904977,-0.42981374154070506,-0.5830650515644802
-0.35687721990270765,-0.5631299871964263,-0.3265223208836564,-0.5537075433377535
-0.33678949768556765,-0.5573479151212593,-0.35655113206274885,-0.5569581092127465
-0.315958740800477,-0.5513942500094116,-0.34754338077112473,-0.6256649431694057
-0.29433689360663007,-0.5452620633317881,-0.36620806956950575,-0.6258093730717791
-0.27187282792901174,-0.5389439211310588,-0.3263900615313598,-0.6121780175433262
-0.24851222970597972,-0.5324318525646194,-0.2276791427287673,-0.4837090687449469
-0.2241975095299796,-0.5257173174631806,-0.24708285665919233,-0.6115104276198509
-0.19886774693130113,-0.5187911732171866,-0.17835948905872195,-0.4798554536079962
-0.17245868075971627,-0.5116436414220915,-0.14913709534168654,-0.47186492276596154
-0.14490276102057792,-0.5042642748620342,-0.10375211441677826,-0.4242572435453009
-0.11612928107707939,-0.4966419255954384,-0.03500484488676868,-0.5580554174435641
-0.08606461328141086,-0.4887647151319646,-0.005549403540968154,-0.5132762690771565
-0.05463257585914968,-0.4806200079649177,-0.04535259023461042,-0.4988619630893023
-0.021754964209801636,-0.47219439005363945,-0.030832982844704454,-0.4258874306282731
0.012647714408690884,-0.46347365424302445,-0.015281918662115486,-0.5112515889880169
0.04865525779968174,-0.45444279506707425,0.11338800832524193,-0.45105206930790626
0.08634648645278116,-0.44508601591240593,0.0492887551935905,-0.4698713360327708
0.12579760587442515,-0.4353867521129506,0.050668496820393163,-0.49300135860836064
0.16708015425179332,-0.4253277141979672,0.21463205351508188,-0.3942359241773466
0.2102584757697976,-0.41489095619959776,0.13549254930284477,-0.43599641357321156
0.2553866644668069,-0.4040579746047308,0.2608549725323411,-0.36561073357712504
0.3025049352837078,-0.3928098441480807,0.3377200525577453,-0.46822149881145037
0.3516354007591317,-0.3811273970999982,0.3643532456038901,-0.3547891976711596
0.40277726682500764,-0.3689914528803841,0.3423219993977489,-0.3403104331705255
0.4559015125284515,-0.35638310456796624,0.5043759049068296,-0.267646739633995
0.510945188763734,-0.34328406797355104,0.5040427316227197,-0.39441043237786355
0.567805561090837,-0.32967709717936805,0.543463006099153,-0.28750642903928103
0.6263344292235786,-0.31554646757951627,0.588631379853329,-0.2834184107313295
0.6863330738063212,-0.3008785232850032,0.7026323358239119,-0.36599492934178357
0.7475483962505589,-0.28566228016725537,0.6949135368358084,-0.3586799044340375
0.809670908792299,-0.2698900688618236,0.8125559505365887,-0.19076974162443203
0.8723352717100207,-0.2535581940550698,0.9022259338855925,-0.21155568884735892
0.935124031073952,-0.23666757799043733,0.9455507715453526,-0.29727545202479144
0.9975750543206829,-0.21922434840464441,0.9488637778390903,-0.20004500277797965
1.0591928755371174,-0.20124032543507203,0.9851097676412665,-0.19675882777974482
1.1194637544323502,-0.18273336001612583,1.04805563971574,-0.24540793758647864
1.1778737622786113,-0.16372747938549972,1.1873420025358183,-0.19437035429242322
1.2339287091718436,-0.14425280451546646,1.2012998950214386,-0.2151263878456922
1.287174319460516,-0.12434521958873075,1.330739904972242,-0.04953591559624913
1.3372148483098014,-0.10404579382612925,1.3074978960492551,-0.14947097668484607
1.3837283862205518,-0.08339997855714745,1.369682510339624,-0.08918744103405704
1.4264774378200076,-0.06245662402422978,1.4440205857224422,-0.11481041081207957
1.465313934887127,-0.041266877471146525,1.528710609718035,-0.04094303594074932
1.5001785401826433,-0.019883033719829177,1.4437065638182187,0.05644120528236492
1.5310947783498141,0.0016425897461015138,1.4572458534964547,-0.03449372659165804
1.5581590650849149,0.023258688866465295,1.5644581123321444,-0.0604839824628202
1.581528014497599,0.04491587020811283,1.6198644171906638,0.09203416938246983
1.601404467748416,0.06656737717397126,1.5393785619160028,0.14677826427229895
1.6180235404255576,0.08816963158468435,1.6283019720414662,0.16547838750835736
1.631639703148425,0.10968259340571442,1.7016304911191906,0.12149173340513192
1.6425155697224096,0.13106995403574115,1.557578531058692,0.21295764304072692
1.6509127378048516,0.15229918678927984,1.6915352771988994,0.0903089250801738
1.6570847532729394,0.17334148219348788,1.6702098413554751,0.15100734233745294
1.6612720715294642,0.19417159622923916,1.6881876820196942,0.14991154500585196
1.6636987674556292,0.21476763767520543,1.7072084615847758,0.20196392612541178
1.6645706890629384,0.23511081725036673,1.7116457934492493,0.3181170104979311
1.6640747413428647,0.25518517712646094,1.6698325277723223,0.18564322570814282
1.6623790094209119,0.2749773152077579,1.7180265234643488,0.285250776581488
1.6596334696054704,0.29447611474141266,1.6457449173261447,0.27786900792578656
1.6559710827111194,0.3136724865337866,1.7277344502451197,0.3867913655139465
1.6515091091933005,0.332559128377836,1.7164010441726527,0.3043031205966335
1.6463505262035294,0.35113030422755703,1.6539777034008925,0.2760875657215087
1.640585460878627,0.3693816441219722,1.6620349612891367,0.45270875972822866
1.6342925816480183,0.38730996477627794,1.6161869516109437,0.37502304790932944
1.6275404105350895,0.40491311003120434,1.614007873722989,0.4182812969348036
1.620388535195324,0.4221898098999639,1.5649238034212043,0.4189959433740128
1.6128887107549899,0.43913955670378096,1.6305762615393755,0.5080767965802534
1.6050858493371911,0.45576249668354135,1.5979164232168326,0.38645802845661814
1.5970189003237896,0.47205933547085754,1.544276416202071,0.5365565305169032
1.5887216275983655,0.4880312558621806,1.592764695301637,0.4238636212962372
1.5802232918024848,0.5036798464390552,1.599842078173549,0.5721875555123298
1.571549246443719,0.5190070396980492,1.6060355619106477,0.4586605760468473
1.5627214568409316,0.5340150584827474,1.6464569986790503,0.46562442105463486
1.5537589506159803,0.5487063696391213,1.495033202468939,0.5893915121909777
1.5446782079097878,0.5630836439392832,1.5442226550611222,0.5961734451719009
1.5354934988323359,0.5771497214339905,1.583559030957224,0.6263426497432236
1.5262171749304492,0.5909075814996773,1.4835364577910413,0.602201582919192
1.516859920726614,0.6043603169406873,1.4850383910028353,0.657659377054789
1.5074309706793807,0.6175111115918355,1.4679215698414927,0.686516786204263
1.4979382962602152,0.63036322094094,1.5817601916515514,0.5497861661247114
1.4883887672428089,0.6429199553562548,1.5183870540699071,0.5570933436668135
1.4787882907623484,0.6551846655606414,1.5595229898050946,0.7397733939049959
1.4691419312236873,0.6671607300437119,1.5252661255853357,0.7416541117245107
1.4594540137158578,0.678851544145907,1.4021066382432812,0.6093405745803556
1.4497282132216904,0.690260510585349,1.4258957402355323,0.6401563368512759
1.4399676315905916,0.7013910312300715,1.4693286402500163,0.7552344303584331
1.4301748639646898,0.7122464999455405,1.3905989817871993,0.6579130594432989
1.4203520561086658,0.722830296370848,1.4115391921596272,0.720873975621985
1.4105009538869564,0.7331457804971071,1.4988420565458314,0.6698958251831865
1.4006229459543953,0.7431962879388588,1.4604307823703389,0.7279097340446451
1.3907191005738546,0.7529851258041295,1.468493504856102,0.8066519734160905
1.3807901973436587,0.7625155690814959,1.3917955450660808,0.7142489279338942
1.370836754505414,0.771790857473421,1.3780820340651057,0.7716327881104466
1.3608590524068034,0.7808141926144792,1.29084931512454,0.8629116267592091
1.3508571536115181,0.7895887356211151,1.3991843878764787,0.7290811052768071
1.340830920077885,0.7981176049264688,1.4238527884285992,0.8169933823066513
1.3307800277671296,0.8064038743597034,1.376603095844379,0.8173241201049379
1.3207039789901924,0.8144505714343466,1.2953373948295035,0.7603722191770835
1.310602112757253,0.8222606758145018,1.366423888921336,0.733188414220042
1.3004736133555965,0.829837117931518,1.3448956112863508,0.7528741766406745
1.2903175173482142,0.8371827777269046,1.3458847385743176,0.7707697613841296
1.2801327191567893,0.8443004835000124,1.3273679320224838,0.859608990687027
1.2699179753678174,0.8511930108413471,1.3041740834572795,0.8511568105257222
1.2596719078789398,0.8578630816343763,1.3047414543639408,0.8752006235461618
1.2493930059836733,0.8643133631103904,1.199200732141898,0.7791101192629557
1.2390796274761424,0.8705464669424184,1.2110148894212727,0.7878836839154805
1.2287299988428193,0.876564948365412,1.1475679941460557,0.9191614875174037
1.2183422145953373,0.8823713053109228,1.1380101123945465,0.895325457563665
1.207914235786883,0.8879679775453393,1.2782527378119144,0.867141453749498
1.1974438877442788,0.8933573458014269,1.217359598397549,0.8224691396462406
1.1869288570384176,0.8985417308934608,1.1503058706443912,0.8430982912586689
1.1763666877070462,0.903523392806656,1.095174416154706,0.9816584282206446
1.1657547767358465,0.9083045297519025,1.1457657179631162,0.8444438864467851
1.155090368796193,0.9128872771770119,1.0826747845903197,0.8883963633145091
1.1443705502307722,0.9172737067257803,1.1539962326532036,0.8663815531317439
1.1335922422712803,0.9214658251361855,1.151246600276567,0.8868927696846277
1.1227521934656197,0.9254655730689539,1.0632343997098657,0.9369348501970958
1.1118469712852466,0.9292748238575761,1.0995846096233186,0.8666655790452358
1.1008729528765386,0.9328953821706,1.1816290681203878,1.0141961769323227
1.0898263149131335,0.9363289825767109,1.0696685964786103,0.8959615131997354
1.078703022499074,0.9395772880026954,0.9953666061705839,0.9621405778165609
1.0674988170651993,0.9426418880738967,1.0054581897382335,0.8555434160982621
1.0562092031934631,0.9455242973261956,0.9935275542976227,0.9954586000372402
1.0448294342956506,0.9482259532778787,1.0286702864620378,0.9046548681485328
1.0333544970642479,0.9507482143490036,1.060409708970588,0.9565481127514578
1.021779094603876,0.9530923576150079,0.964577191504335,1.0078764108043752
1.0100976281416751,0.95525957638035,0.9361551618023761,0.9370982350572541
0.9983041772042038,0.9572509775568911,1.066517801329504,0.9992184570005931
0.9863924781367317,0.9590675788305364,0.9030829043497508,0.9236679826916183
0.9743559008281203,0.9607103055983257,0.9609225239848014,1.0032376424140586
0.9621874234907443,0.9621799876567002,0.9667352840019418,0.9516837351087774
0.9498796053299629,0.9634773556200549,0.988433968584649,0.8857090353810521
0.9374245569214252,0.9646030370469036,0.9571092542044546,1.0376220924155712
0.9248139080968636,0.9655575522490265,0.8797582211054321,0.9649908547298341
0.9120387731198849,0.9663413097568132,0.8673361150739101,0.898558368237111
0.8990897129125204,0.9669546014116556,0.9473060245104575,0.9916837125686774
0.8859566940708221,0.9673975970536518,0.8834403944674994,0.9571428839347058
0.872629044383537,0.9676703387700494,0.8677689748270513,1.001985282691785
0.8590954045417668,0.9677727346667554,0.8509415658889674,0.9536372827451552
0.8453436756995208,0.9677045521218596,0.7571038902088448,0.8967532773231948
0.8313609625151859,0.967465410476428,0.7451211678526403,0.9036372376762252
0.8171335112722715,0.9670547731138169,0.766369173718993,0.9121867393176265
0.8026466426444886,0.9664719388744053,0.885906165079582,1.0037454613382457
0.7878846786355794,0.9657160327479384,0.825945522068483,1.0032354721593923
0.7728308631887775,0.964785995780599,0.827095460834033,0.8833779771320602
0.7574672759249891,0.9636805741284754,0.8437885562620542,0.9004708139766818
0.7417747384336836,0.9623983071832712,0.8182146459843616,0.8896277551462743
0.7257327125073554,0.9609375146899223,0.6507664460098906,0.9992116933875463
0.7093191896810392,0.9592962827692778,0.6696946170635615,0.8762008415456056
0.6925105714151116,0.9574724487522133,0.6549584844196535,1.0449997137348135
0.6752815392456732,0.9554635847245593,0.6478818032232193,0.9619341512873678
0.6576049142263877,0.9532669796751675,0.6907301509683155,0.9856468894830874
0.6394515050042807,0.9508796201324637,0.6707416461903963,0.8667405655819087
0.6207899439168937,0.9482981691681959,0.6126981568749533,0.9267963878686042
0.6015865105787064,0.9455189436410943,0.6589374051327543,1.0225209908199697
0.581804942553,0.9425378895482631,0.6203660877263052,0.9826798825175843
0.5614062328968935,0.939350555348887,0.6220548535916446,0.937213386037066
0.5403484146420809,0.935952063124051,0.6232242124911094,0.9114269310449032
0.518586332657219,0.9323370774391213,0.5758947962246973,0.8867260142031479
0.49607140386216797,0.9284997717825486,0.505348613863053,0.9433895648964252
0.4727513674699647,0.9244337924688156,0.40369124890059427,0.8937932007787974
0.44857002787039846,0.920132219915744,0.4211877625913302,0.9955935922055494
0.42346699400267634,0.9155875272402825,0.36475615517141247,0.9284390830190695
0.3973774206720053,0.910791536165762,0.3841727672331818,0.9682799177674901
0.37023175934132335,0.9057353703018829,0.3540452878181359,0.8597436522735349
0.34195552858973244,0.9004094059519986,0.293156163398598,0.9793392293689941
0.3124691178094461,0.8948032207275303,0.23866492952795682,0.879830362607781
0.2816876419707677,0.8889055404151448,0.3180278955051349,0.9714382467858824
0.24952087059649594,0.8827041847590712,0.2682098272081812,0.9411082275538316
0.21587326064257267,0.8761860131010901,0.2971032420596949,0.8252715821607108
0.18064413096907533,0.8693368711789823,0.2579091347514026,0.8069908885593098
0.14372802566749807,0.8621415408373847,0.22089740508866543,0.9447789714307115
0.10501532478280386,0.8545836949717144,0.16317191478100523,0.8145455681561107
0.06439317389722252,0.8466458607256384,0.0897243002811456,0.8067799129705613
0.021746818364986417,0.8383093948143762,0.101479381186123,0.7515561706136982
-0.023038556925490006,0.8295544758652408,-0.06351712192328426,0.8728217402879533
-0.07007536671881742,0.820360119860525,-0.05079556278342841,0.7810923013171799
-0.11947041569077582,0.8107042261284576,-0.1967328778441494,0.8219935120595332
-0.17132080533000396,0.8005636628230566,-0.18959138446382268,0.7928721785817172
-0.2257088261346761,0.7899144023926145,-0.19140442497723226,0.8034865242325366
-0.28269572338703547,0.7787317190330325,-0.24968537262618573,0.7412228264157557
-0.34231426858106273,0.7669904613539904,-0.4033314450930928,0.8459255446635257
-0.4045601462083659,0.7546654141531097,-0.4897747864659858,0.8362634043422299
-0.46938228708662305,0.7417317628808999,-0.39909849572260125,0.7792312801029067
-0.5366724531381508,0.7281656725527048,-0.5162372848173009,0.6466627095237633
-0.606254607603806,0.7139449888908782,-0.5574517414502331,0.7949370399839218
-0.6778748816117574,0.699050062698581,-0.6440232976229493,0.6185394800296741
-0.751193248150404,0.6834646883163286,-0.7132355372302368,0.7354237133176151
-0.8257782897713376,0.667177133250099,-0.7787424128322278,0.7261195055060882
-0.9011066225624205,0.6501812190457684,-0.8803073712239339,0.5688107279177629
-0.9765685209829675,0.6324773945018588,-0.9041022388577554,0.6883043097469984
-1.051480978182183,0.6140737238151711,-0.9815693776365804,0.5727105922235148
-1.1251087669014055,0.5949866978854352,-1.0357335738284976,0.6529113507379902
-1.1966930430493932,0.5752417712032429,-1.1564378212495392,0.6401176634940939
-1.2654857756218496,0.554873533811081,-1.3515215252329607,0.5159018384784516
-1.3307870330544413,0.5339254505259055,-1.256536680654927,0.5092050321133956
-1.3919812295222251,0.5124491376679937,-1.391979247077847,0.5092590174854351
-1.4485681446209016,0.490503196656031,-1.4279085782251826,0.5704312165609293
-1.500185051624179,0.4681516758942493,-1.42676908598325,0.4030009786455309
-1.5466175709989138,0.4454622772054011,-1.47023283535634,0.377800115306023
-1.5877986176759014,0.4225044512563404,-1.654399064937325,0.47258392253214926
-1.6237965977926543,0.39934753233061693,-1.636296006664144,0.4757474301113407
-1.6547954083991463,0.37605904628866277,-1.6794251019979218,0.4528548672173266
-1.6810695318528335,0.35270329179720433,-1.6756841038274197,0.2913916330454226
-1.7029575477773025,0.32934025238683234,-1.6154970822758024,0.2780083143202247
-1.7208368566364711,0.3060248545692971,-1.7246468757815543,0.2572046424708458
-1.7351015701638342,0.2828065521110134,-1.7391164577217038,0.2749840303489416
-1.74614462622606,0.259729192392439,-1.709384701113011,0.29244198372173824
-1.7543444121468532,0.23683110816921724,-1.792406946045626,0.22642492413866736
-1.760055622652878,0.21414537528005484,-1.7825719754114777,0.22179394930860524
-1.763603749471092,0.1917001810867931,-1.69724759521015,0.137868817073359
-1.7652824630205222,0.16951925672846105,-1.7519962280204107,0.1032187600126318
-1.7653531464407644,0.14762233616068818,-1.8424065712183324,0.16954838125534374
-1.7640459229104586,0.12602561470796916,-1.6806732374582525,0.1484857656881206
-1.7615616346455516,0.10474218846935385,-1.7087528740588935,0.06463598373256368
-1.7580743561195427,0.08378246294483084,-1.7475760474444815,0.10333253503460516
-1.753734137556937,0.06315452462784513,-1.7761266169967684,0.10927450280528708
-1.7486697696573472,0.04286447319475054,-1.6771305784188812,0.11884538022680805
-1.7429914349123734,0.022916714567605884,-1.756963825350564,-0.04450048910047201
-1.736793166256624,0.003314216805896636,-1.6513044158279202,0.08772980906860614
-1.7301550731388076,-0.015941268253392243,-1.6415920137502953,-0.012792275981659867
-1.7231453217774253,-0.034849014229143195,-1.7848240242948843,-0.11350224987459548
-1.71582187351817,-0.05340915680571029,-1.7073243319133464,-0.0641082085777533
-1.708233995485719,-0.0716225543186089,-1.6397842211802105,-0.07635776348479412
-1.70042356321717,-0.08949066914029952,-1.6813938259532615,-0.1273048242651936
-1.6924261772607572,-0.10701546697983502,-1.700743414940349,-0.0737910883695519
-1.6842721159735508,-0.12419933152462176,-1.7056495161010965,-0.08097699669662295
-1.67598714576713,-0.1410449921658276,-1.6459663277554637,-0.1713912540615445
-1.6675932083852136,-0.1575554628456366,-1.6763520196974322,-0.14550963001072048
-1.6591090028187139,-0.17373399033632425,-1.7170012308389162,-0.24646532798958268
-1.6505504774051805,-0.18958401050443371,-1.6887215440143868,-0.17208438447361668
-1.641931245662535,-0.20510911132756252,-1.6201779826371099,-0.27035325428417883
-1.6332629375506145,-0.2203130016175902,-1.7183997101859925,-0.1590839337104359
-1.6245554961768882,-0.23519948456473103,-1.7000747229516608,-0.25345904588915075
-1.6158174284774658,-0.2497724353541771,-1.6419564892856737,-0.19699586712679312
-1.607056017108185,-0.26403578222402546,-1.6216265722811083,-0.28988247009483376
-1.5982774996612965,-0.27799349043229743,-1.5181558559174624,-0.2589486231702883
-1.5894872203646988,-0.29164954868461956,-1.6054549164134366,-0.26557773457835593
-1.580689758604807,-0.3050079576447648,-1.497933580124783,-0.3478719946491678
-1.5718890379230066,-0.31807272020970934,-1.4926391117113174,-0.2525046768018705
-1.5630884185522345,-0.3308478332808634,-1.5635738803362784,-0.28359533315900276
-1.554290776069092,-0.34333728080515447,-1.6141320829354957,-0.4072867401650516
-1.5454985683242328,-0.35554502789494724,-1.6078380889098667,-0.31063144619265526
-1.53671389246752,-0.3674750158654446,-1.4468432431634193,-0.3665546803861835
-1.5279385335942037,-0.37913115805313874,-1.4818988270101046,-0.36529227203410225
-1.5191740062951808,-0.39051733629983565,-1.448863172671762,-0.37926152829492915
-1.5104215901907077,-0.4016373980044027,-1.4604862042372826,-0.3561797874248265
-1.5016823603562917,-0.412495153659226,-1.5349614428533194,-0.44387141266657254
-1.4929572134065192,-0.4230943748008653,-1.5635939439736304,-0.4246660577269701
-1.4842468898827192,-0.43343879231493493,-1.4620131647514245,-0.3600661543478275
-1.4755519934898378,-0.44353209504413854,-1.4045774847393442,-0.4699919048574002
-1.4668730076435155,-0.4533779286559046,-1.421634596031383,-0.5361592214693388
-1.4582103097174763,-0.46297989473242984,-1.3840556329984879,-0.39143341072919463
-1.4495641833217316,-0.4723415500513274,-1.4566968396635862,-0.40971343409067384
-1.4409348288919357,-0.4814664060296433,-1.4118418170669549,-0.5656624834940511
-1.432322372827959,-0.4903579283078849,-1.3611200925150673,-0.4760655942987902
-1.4237268753840904,-0.49901953645400093,-1.3813618249951565,-0.46033438873837884
-1.4151483374831628,-0.5074546037700596,-1.370582397708896,-0.47239954208273627
-1.406586706601441,-0.5156664571867607,-1.3624639137708126,-0.5119460360129108
-1.3980418818495466,-0.5236583772329608,-1.3288352019101277,-0.5076307933705091
-1.3895137183564255,-0.5314335980691269,-1.4120956971685013,-0.5293765507419887
-1.3810020310478488,-0.5389953075751318,-1.3659273801483418,-0.502087202355411
-1.3725065978977513,-0.5463466474840719,-1.3141259881257163,-0.5023657733847957
-1.364027162719489,-0.5534907135548878,-1.2775384358476045,-0.5105822203468461
-1.355563437554526,-0.5604305557775017,-1.3366645574898213,-0.5383962169119123
-1.347115104707891,-0.5671691786049926,-1.3638465398733137,-0.49999711405181413
-1.3386818184727611,-0.5737095412080226,-1.254277229062065,-0.5612386740036622
-1.3302632065805406,-0.5800545577473218,-1.241526445678747,-0.4908643888959646
-1.3218588714076747,-0.5862070976605529,-1.3340088661368468,-0.5123290762445969
-1.3134683909660183,-0.5921699859603162,-1.2806300184634802,-0.6158921180859773
-1.3050913196997864,-0.5979460035404371,-1.2280712300112735,-0.5547319886480642
-1.2967271891088237,-0.6035378874880034,-1.3349922418764641,-0.5194093869658274
-1.2883755082151018,-0.6089483313989037,-1.2061068239838881,-0.5803384139648485
-1.2800357638868864,-0.6141799856948575,-1.2428888009180166,-0.6189218038339047
-1.271707421032879,-0.6192354579401393,-1.3610477664173761,-0.6525963625480434
-1.263389922676773,-0.6241173131563734,-1.3512114937258453,-0.6647383853732387
-1.2550826899210306,-0.6288280741339329,-1.3436471965071342,-0.5912641114237884
-1.2467851218072485,-0.6333702217386042,-1.186877352445434,-0.6932859684047865
-1.238496595079226,-0.637746195212289,-1.2326456011428457,-0.6052666878109172
-1.2302164638537123,-0.6419583924666104,-1.1536132767561422,-0.6926554487267577
-1.2219440592028261,-0.6460091703683659,-1.252093877152347,-0.7212838316463759
-1.2136786886512299,-0.6499008450158362,-1.1495358704836098,-0.6957556792567465
-1.2054196355903426,-0.6536356920050088,-1.2098327065198604,-0.6457318631904868
-1.197166158611134,-0.6572159466848192,-1.2350902464649347,-0.6668671927247847
-1.188917490756367,-0.6606438044005422,-1.2043393529894322,-0.6814443579222628
-1.180672838692533,-0.6639214207244893,-1.195680089341006,-0.6877205251818234
-1.1724313818011356,-0.6670509116731843,-1.1185557181595083,-0.6685720454671276
-1.1641922711884363,-0.6700343539101922,-1.1024978226867337,-0.7591706600563852
-1.1559546286122333,-0.6728737849337825,-1.14469647575907,-0.7187395970208629
-1.1477175453237516,-0.6755712032485959,-1.111470741802096,-0.6745398865132872
-1.1394800808222183,-0.6781285685204745,-1.2173983032874385,-0.7204550995767326
-1.1312412615192091,-0.6805478017135957,-1.175491947129765,-0.7076909798311547
-1.1230000793093657,-0.682830785209024,-1.144284888421795,-0.6371376998253147
-1.1147554900435945,-0.6849793629037669,-1.140221983720384,-0.7392033297226331
-1.1065064119003556,-0.686995340289385,-1.154263717681678,-0.7354659116204073
-1.0982517236501455,-0.6888804845091604,-1.1509170809775897,-0.6184597086113759
-1.0899902628077462,-0.6906365243927862,-1.114548245109405,-0.6599103234193889
-1.081720823666271,-0.6922651504674823,-1.0816584634764475,-0.7538842986908488
-1.0734421552064612,-0.6937680149443828,-0.9972925722407275,-0.6972585486257009
-1.0651529588740913,-0.6951467316789783,-1.1110002689138687,-0.775258253412771
-1.0568518862177019,-0.6964028761043185,-0.9673929039090311,-0.6601547038197142
-1.0485375363782112,-0.6975379851356054,-1.0528706384785458,-0.6249705548759408
-1.0402084534212381,-0.6985535570447184,-1.1215523144567274,-0.7802478353226484
-1.0318631235022058,-0.699451051303119,-0.9979266479786776,-0.7261138671653975
-1.0234999718534825,-0.7002318883914787,-1.0719055101664328,-0.7699122465632547
-1.0151173595819378,-0.7008974495742644,-1.0307973442401712,-0.6487200423870004
-1.006713580264352,-0.7014490766373924,-1.0604052863877351,-0.6312730290112539
-0.9982868563271097,-0.7018880715869327,-1.0709886299511528,-0.7050370738960732
-0.9898353351955119,-0.7022156963067012,-1.0775376425747865,-0.7129388844143785
-0.9813570851968759,-0.702433172172428,-1.0259920191417613,-0.7738814556777034
-0.9728500912003115,-0.702541679620018,-0.9266402411395656,-0.6567495854805838
-0.9643122499747001,-0.7025423576652466,-0.9557626167199063,-0.6972280947838935
-0.9557413652449149,-0.7024363033720332,-0.9124770298593657,-0.6790392516467209
-0.9471351424247157,-0.7022245712662292,-0.9862324238290255,-0.6755807803301817
-0.9384911830030107,-0.7019081726916274,-0.9136558960059109,-0.6626853270118052
-0.9298069785582943,-0.7014880751046552,-0.9888678567511108,-0.7278191929272139
-0.9210799043740255,-0.7009652013039448,-1.0073466480263165,-0.7878706443582059
-0.9123072126254922,-0.7003404285906909,-0.8807470244525385,-0.7175183063216881
-0.9034860251063026,-0.6996145878553875,-0.8804984098285931,-0.772309920422353
-0.8946133254600348,-0.6987884625862048,-0.9350868713251244,-0.7420300913517667
-0.8856859508797379,-0.6978627877938949,-0.8025944541728733,-0.6104076451995217
-0.8767005832349037,-0.6968382488477255,-0.9161243294010771,-0.6891538008651467
-0.8676537395821858,-0.6957154802165055,-0.8169721352915285,-0.7195292599335159
-0.8585417620125139,-0.6944950641083059,-0.9024388090532618,-0.6837161657396633
-0.8493608067833144,-0.693177529001973,-0.8056016674081384,-0.604373960525421
-0.8401068326802732,-0.6917633480629873,-0.7875105232743027,-0.7041657624594672
-0.830775588548434,-0.6902529374356247,-0.8628466742028178,-0.6558979386896938
-0.8213625999273969,-0.6886466544027402,-0.8506172704885656,-0.6870296814567853
-0.811863154719923,-0.6869447954037949,-0.7332488812925939,-0.6274761682203331
-0.802272287817338,-0.6851475939009918,-0.7852640923261055,-0.7588846897256842
-0.7925847645987264,-0.6832552180825698,-0.8073060965573605,-0.6140182442959261
-0.782795063213985,-0.6812677683914186,-0.7249412801952351,-0.7165834696168708
-0.7728973555533195,-0.6791852748662114,-0.7562461629138545,-0.7527046427885522
-0.7628854867977036,-0.6770076942812174,-0.7845088848075192,-0.7238033076894963
-0.7527529534361219,-0.674734907069822,-0.6692484066440948,-0.6428362017782008
-0.7424928796260822,-0.6723667140155635,-0.774843630634437,-0.6160000753489643
-0.7320979917638646,-0.6699028326931755,-0.7856586445252507,-0.7049963803832529
-0.7215605911202738,-0.6673428936406927,-0.6622089829311367,-0.6476845785471216
-0.7108725243862598,-0.6646864362421365,-0.627734828349765,-0.6448641378751739
-0.7000251519606833,-0.6619329042986354,-0.6335923471289411,-0.6005108860040224
-0.6890093137997545,-0.6590816412640377,-0.7638268769111386,-0.7189927346861592
-0.6778152926343137,-0.6561318851191541,-0.5962715138859561,-0.6417002227349442
-0.6664327743472356,-0.6530827628566946,-0.5784982861667585,-0.6884267635952953
-0.6548508052889604,-0.6499332845467556,-0.7065752196687629,-0.6080342103996769
-0.6430577462946603,-0.6466823369503497,-0.6153455591618286,-0.6515950059550357
-0.6310412231520954,-0.6433286766459656,-0.6481101263964675,-0.695086291233337
-0.6187880732551594,-0.6398709226314848,-0.6702136458036341,-0.6402155788524115
-0.606284288164902,-0.6363075483609913,-0.5376701239346998,-0.6329665052804345
-0.5935149517880864,-0.632636873173089,-0.6678157667473925,-0.638731454706102
-0.5804641738738681,-0.6288570530643102,-0.6312267098229408,-0.5682907196056277
-0.5671150185230203,-0.6249660707580993,-0.5351920600782654,-0.6779125178896397
-0.5534494274026125,-0.6209617250167132,-0.46407032781701196,-0.7001835030048974
-0.5394481373638651,-0.616841619140266,-0.6098305555837422,-0.6540965549957983
-0.5250905921742426,-0.6126031485941357,-0.4646815958854915,-0.5261180011916533
-0.5103548480994419,-0.6082434877031443,-0.5087222609264708,-0.6143752802957363
-0.49521747311025316,-0.6037595753484691,-0.47008366747298647,-0.5701759993612334
-0.47965343954767264,-0.5991480996013059,-0.4835063836391593,-0.5551245204679198
-0.46363601016257683,-0.5944054812261338,-0.5428605654728224,-0.5210253419464277
-0.4471366175605255,-0.5895278559863066,-0.3927507265390608,-0.6068261764818099
-0.4301247372362911,-0.5845110556860015,-0.35877916385966074,-0.6716929008028788
-0.41256775458696526,-0.5793505878857726,-0.38204751687170085,-0.5148879487967011
-0.39443082655983985,-0.5740416142346804,-0.4567221740019732,-0.6156311882058924
-0.37567673893748904,-0.5685789273709515,-0.3702174124493016,-0.6410524601896944
-0.3562657607068201,-0.5629569263563196,-0.41114502283753634,-0.5621659829902811
-0.33615549752462015,-0.5571695906277554,-0.25358172148662106,-0.47113508509737756
-0.31530074700729305,-0.5512104524756815,-0.22903846622494556,-0.5925546337393095
-0.2936533594703796,-0.545072568091732,-0.32871560999384364,-0.4998154662308061
-0.2711621088632803,-0.5387484872738504,-0.19368775930238363,-0.5800685340183611
-0.24777258003177796,-0.532230221934626,-0.2834484631780573,-0.4641675518752426
-0.22342708014712864,-0.5255092136334221,-0.2509841067367145,-0.5038237316156468
-0.1980645842228248,-0.5185763004478017,-0.13098577193428987,-0.5781912398934139
-0.17162072715964852,-0.5114216836194297,-0.11880589525711396,-0.5323426519321235
-0.1440278577778325,-0.5040348945591582,-0.09365669281838981,-0.5067618400406678
-0.11521517386833463,-0.4964047629811927,-0.07534893306560425,-0.42551719174264746
-0.0851089614653098,-0.4885193871635555,-0.046176935123083435,-0.5221715710093632
-0.05363296632232429,-0.48036610760837295,-0.13825480878827143,-0.5625370465258059
-0.020708930930205288,-0.47193148570778687,-0.01868752390305753,-0.5395596176414664
0.013742663768985162,-0.46320128941593236,0.01247349563134311,-0.5258796472948225
0.049801606771155506,-0.45416048838935097,-0.009348054099210253,-0.38465683510744036
0.08754666442812559,-0.44479326158935795,0.16988931638930918,-0.508557917249335
0.12705393075692045,-0.4350830209371527,0.20300855900665055,-0.45333131713715413
0.16839476120330335,-0.4250124552648053,0.12821660276890742,-0.4231419101837143
0.2116332302362336,-0.4145635994898729,0.2521934750639631,-0.3278730780321979
0.2568230579023521,-0.40371793461893424,0.19668564309776887,-0.48251172738232023
0.30400396250602635,-0.3924565247941445,0.26564509827165134,-0.38213273515125934
0.35319741874122057,-0.3807601980468997,0.4162207082289079,-0.3512835495187435
0.4044018360667884,-0.3686097775894896,0.4457266585749051,-0.3651131450636864
0.45758722404539637,-0.35598637019679924,0.387460637171263,-0.2678133816120887
0.5126894822390493,-0.3428717173060258,0.49459010163055883,-0.4010285899767442
0.5696045428477725,-0.3292486126650798,0.6034255935475495,-0.2648438980697439
0.6281827022491475,-0.31510138745533783,0.6830644370972256,-0.2845383101614322
0.6882235957843088,-0.3004164595997126,0.6917221876203706,-0.32942869657703167
0.7494723849047727,-0.2851829383329127,0.708544251401679,-0.22294754643401288
0.8116178160294254,-0.26939326811952546,0.8390213611736637,-0.2024165250986635
0.8742928481296968,-0.25304388798251415,0.9313434524312729,-0.31386347820553456
0.9370784993895919,-0.23613587392113336,0.9422353387980473,-0.31665317112449576
0.9995114033378864,-0.2186755244123479,0.9651726961880365,-0.24632110654464567
1.0610952753623362,-0.20067484340995453,1.0872243023976877,-0.1975931739206937
1.1213160792372145,-0.18215187337103847,1.1447654302750305,-0.23378951360739356
1.17966019103769,-0.16313083412172152,1.2253917337751017,-0.15212433350944354
1.2356343601366602,-0.14364203276457674,1.3060232609635114,-0.2251132711095857
1.288785864026051,-0.12372152531235556,1.2264850205166278,-0.15938756229923845
1.3387210472752074,-0.10341053103898504,1.3313031181791113,-0.12510421184668533
1.385120497774745,-0.0827546231462589,1.4385362107146307,-0.05448373664335923
1.4277494613559945,-0.06180274085581352,1.5030816793384167,-0.034584123330804344
1.466462675292012,-0.04060608490209615,1.3929060745252277,-0.016702302586332637
1.5012034994351517,-0.019216967793542178,1.497159409457622,0.06007582107251652
1.53199790070404,0.0023123092565584223,1.4871939619069239,0.02516551037910372
1.5589443754460441,0.023930488763081244,1.4747953623697059,-0.017238032146468525
1.582201195234431,0.04558824923566443,1.569132797324872,-0.0350290214245587
1.6019724175145698,0.06723892574910442,1.6238197803652341,0.01719933676596095
1.618493951411296,0.08883904573898635,1.687766630653507,0.10905778418134003
1.6320206830532809,0.11034868325271649,1.6408066808389956,0.08762316038294683
1.6428153240134002,0.13173164739615764,1.6364246127741775,0.1900507970334687
1.6511393182837222,0.15295552879462798,1.6720935945255675,0.18345127310629436
1.6572458716082563,0.17399163175224838,1.650181849340685,0.13953163518794914
1.6613749714965071,0.19481482021075816,1.6896665745891646,0.12458591394818615
1.6637501469541807,0.21540330357656656,1.7366272407674002,0.19570392648114499
1.6645766620752764,0.23573838498931604,1.5849233419119082,0.2942249699910231
1.6640408303063168,0.2558041904716539,1.7358842973773319,0.3249454934612934
1.6623101595264453,0.27558739323149767,1.5866829288480722,0.32716252314871275
1.6595340779084085,0.29507694356864517,1.6267465147191107,0.21611653883833692
1.6558450363832395,0.3142638115684314,1.6593023365335027,0.2764422732503469
1.6513598285928806,0.333140747114156,1.6823832292522716,0.3852268204100454
1.6461810096069847,0.35170205969874735,1.6340029590149352,0.27619004404495967
1.6403983286747912,0.3699434189979769,1.720408569539036,0.396468920624808
1.6340901185481387,0.3878616760951896,1.6965196411120556,0.3262551221744525
1.6273246049204784,0.4054547045307325,1.6206745019916171,0.39940116189656105
1.6201611151399882,0.4227212599049409,1.6750773290931247,0.4309492858023822
1.6126511765529985,0.4396608565204978,1.6000630327977354,0.35093800722222523
1.6048395025620346,0.45627365945025344,1.6467775233126674,0.4808342934330405
1.596764869573404,0.4725603904148379,1.6665455986445226,0.3998953427544438
1.5884608911542466,0.4885222459163014,1.5634298581208057,0.512011225305964
1.5799566974695654,0.5041608261743803,1.4956612064213994,0.4961486416457779
